Time Series forecasting of US UNRATE
…
str(ue)

## 'data.frame':    911 obs. of  2 variables:
##  $ DATE  : Date, format: "1948-01-01" "1948-02-01" ...
##  $ UNRATE: num  3.4 3.8 4 3.9 3.5 3.6 3.6 3.9 3.8 3.7 ...

#converting the data into tsibble
ue$Year <- year(ue$DATE)
ue_1 <- ue %>%
  mutate(Month = yearmonth(DATE)) %>%
  select(-DATE) %>%
  as_tsibble(index = Month)
ue_1

## # A tsibble: 911 x 3 [1M]
##    UNRATE  Year    Month
##     <dbl> <dbl>    <mth>
##  1    3.4  1948 1948 Jan
##  2    3.8  1948 1948 Feb
##  3    4    1948 1948 Mar
##  4    3.9  1948 1948 Apr
##  5    3.5  1948 1948 May
##  6    3.6  1948 1948 Jun
##  7    3.6  1948 1948 Jul
##  8    3.9  1948 1948 Aug
##  9    3.8  1948 1948 Sep
## 10    3.7  1948 1948 Oct
## #  901 more rows
…
